{
    "AlphaVantage":{
    },
    "IEX":{
        "announceDate":"declaredDate|to_datetime|%Y-%m-%d",
        "exDate":"exDate|to_datetime|%Y-%m-%d",
        "payment":"amount|to_float",
        "paymentDate":"paymentDate|to_datetime|%Y-%m-%d"
    },
    "YahooFinance":{}
}