{
    "AlphaVantage":{
        "fiscalYearEnd": "FiscalYearEnd",
        "latestQuarter": "LatestQuarter",
        "marketCapitalization": "MarketCapitalization",
        "ebitda": "EBITDA",
        "peRatio": "PERatio",
        "pegRatio": "PEGRatio",
        "bookValue": "BookValue",
        "dividendPerShare": "DividendPerShare",
        "dividendYield": "DividendYield",
        "eps": "EPS",
        "revenuePerShareTTM": "RevenuePerShareTTM",
        "profitMargin": "ProfitMargin",
        "operatingMarginTTM": "OperatingMarginTTM",
        "returnOnAssetsTTM": "ReturnOnAssetsTTM",
        "returnOnEquityTTM": "ReturnOnEquityTTM",
        "revenueTTM": "RevenueTTM",
        "grossProfitTTM": "GrossProfitTTM",
        "dilutedEPSTTM": "DilutedEPSTTM",
        "quarterlyEarningsGrowthYOY": "QuarterlyEarningsGrowthYOY",
        "quarterlyRevenueGrowthYOY": "QuarterlyRevenueGrowthYOY",
        "analystTargetPrice": "AnalystTargetPrice",
        "trailingPE": "TrailingPE",
        "forwardPE": "ForwardPE",
        "priceToSalesRatioTTM": "PriceToSalesRatioTTM",
        "priceToBookRatio": "PriceToBookRatio",
        "evToRevenue": "EVToRevenue",
        "evToEBITDA": "EVToEBITDA",
        "beta": "Beta",
        "week52High": "52WeekHigh",
        "week52Low": "52WeekLow",
        "day50MovingAverage": "50DayMovingAverage",
        "day200MovingAverage": "200DayMovingAverage",
        "sharesOutstanding": "SharesOutstanding",
        "sharesFloat": "SharesFloat",
        "sharesShort": "SharesShort",
        "sharesShortPriorMonth": "SharesShortPriorMonth",
        "shortRatio": "ShortRatio",
        "shortPercentOutstanding": "ShortPercentOutstanding",
        "shortPercentFloat": "ShortPercentFloat",
        "percentInsiders": "PercentInsiders",
        "percentInstitutions": "PercentInstitutions",
        "forwardAnnualDividendRate": "ForwardAnnualDividendRate",
        "forwardAnnualDividendYield": "ForwardAnnualDividendYield",
        "payoutRatio": "PayoutRatio",
        "dividendDate": "DividendDate",
        "exDividendDate": "ExDividendDate",
        "lastSplitFactor":"LastSplitFactor",
        "lastSplitDate": "LastSplitDate"
    },
    "IEX":{
    },
    "YahooFinance":{}
}